<?xml version="1.0" encoding="UTF-8" standalone="no"?>
<!-- Created with Inkscape (http://www.inkscape.org/) -->

<svg
   xmlns:dc="http://purl.org/dc/elements/1.1/"
   xmlns:cc="http://creativecommons.org/ns#"
   xmlns:rdf="http://www.w3.org/1999/02/22-rdf-syntax-ns#"
   xmlns:svg="http://www.w3.org/2000/svg"
   xmlns="http://www.w3.org/2000/svg"
   xmlns:sodipodi="http://sodipodi.sourceforge.net/DTD/sodipodi-0.dtd"
   xmlns:inkscape="http://www.inkscape.org/namespaces/inkscape"
   width="158.66582mm"
   height="187.62944mm"
   viewBox="0 0 562.20171 664.82872"
   id="svg2"
   version="1.1"
   inkscape:version="0.91 r13725"
   sodipodi:docname="planter.svg">
  <defs
     id="defs4" />
  <sodipodi:namedview
     id="base"
     pagecolor="#ffffff"
     bordercolor="#666666"
     borderopacity="1.0"
     inkscape:pageopacity="0.0"
     inkscape:pageshadow="2"
     inkscape:zoom="0.35"
     inkscape:cx="485.47979"
     inkscape:cy="321.42035"
     inkscape:document-units="px"
     inkscape:current-layer="layer1"
     showgrid="false"
     fit-margin-top="0"
     fit-margin-left="0"
     fit-margin-right="0"
     fit-margin-bottom="0"
     inkscape:window-width="1280"
     inkscape:window-height="761"
     inkscape:window-x="-1"
     inkscape:window-y="12"
     inkscape:window-maximized="1" />
  <metadata
     id="metadata7">
    <rdf:RDF>
      <cc:Work
         rdf:about="">
        <dc:format>image/svg+xml</dc:format>
        <dc:type
           rdf:resource="http://purl.org/dc/dcmitype/StillImage" />
        <dc:title></dc:title>
      </cc:Work>
    </rdf:RDF>
  </metadata>
  <g
     inkscape:label="Layer 1"
     inkscape:groupmode="layer"
     id="layer1"
     transform="translate(606.19407,-211.81098)">
    <path
       sodipodi:type="spiral"
       style="fill:none;fill-opacity:1;fill-rule:evenodd;stroke:#4bd756;stroke-width:29.38236046;stroke-linecap:butt;stroke-linejoin:miter;stroke-miterlimit:4;stroke-dasharray:none;stroke-opacity:1"
       id="path4138"
       sodipodi:cx="314.28574"
       sodipodi:cy="372.36221"
       sodipodi:expansion="1"
       sodipodi:revolution="1.6291877"
       sodipodi:radius="127.94878"
       sodipodi:argument="-18.16724"
       sodipodi:t0="0"
       d="m 314.28574,372.36221 c 9.16817,7.44913 -5.51803,16.03365 -12.38094,15.2381 -18.59808,-2.15587 -23.92972,-25.14047 -18.09526,-39.99997 10.43647,-26.58016 44.00974,-33.04066 67.61901,-20.95243 34.64754,17.73997 42.38904,63.12322 23.80959,95.23805 -24.7635,42.80402 -82.32183,51.83665 -122.85709,26.66675 -51.00948,-31.67374 -61.33517,-101.56064 -29.52391,-150.47612 18.36819,-28.24436 48.53577,-47.46646 81.61558,-53.28629"
       transform="matrix(2.6807059,0,0,2.6288552,-1115.6493,-387.71614)" />
    <g
       transform="matrix(0.89141036,0,0,0.89307999,-47.730367,744.82467)"
       id="layer1-3"
       inkscape:label="Layer 1">
      <g
         transform="translate(-951.42857,-180)"
         id="g5054">
        <path
           sodipodi:nodetypes="cccc"
           style="fill:#4e9a06;fill-rule:evenodd;stroke:#000000;stroke-width:3.92268872;stroke-linecap:round;stroke-linejoin:round;stroke-miterlimit:4;stroke-dasharray:none;stroke-opacity:1"
           d="m 665.51879,170.66774 75.3235,-570.80127 c -64.3577,-25.68789 -91.7266,-11.02445 -128.32861,-6.43345 31.94651,192.77295 52.38681,387.84714 37.01181,590.08437"
           id="path5029"
           inkscape:connector-curvature="0" />
        <path
           inkscape:connector-curvature="0"
           id="path5031"
           d="m 704.91469,181.77942 c 25.1079,-388.58222 50.2157,-385.80903 75.3235,-570.80127 -64.3576,-25.68789 -91.7266,-11.02445 -128.3286,-6.43345 l -8.445,578.97269"
           style="fill:#4e9a06;fill-rule:evenodd;stroke:#000000;stroke-width:3.92268872;stroke-linecap:round;stroke-linejoin:round;stroke-miterlimit:4;stroke-dasharray:none;stroke-opacity:1"
           sodipodi:nodetypes="cccc" />
        <path
           sodipodi:nodetypes="cccc"
           style="fill:#4e9a06;fill-rule:evenodd;stroke:#000000;stroke-width:3.85905266;stroke-linecap:round;stroke-linejoin:round;stroke-miterlimit:4;stroke-dasharray:none;stroke-opacity:1"
           d="m 683.69869,196.00742 75.3547,-552.20277 c -64.3844,-24.85089 -91.7646,-10.66524 -128.38182,-6.22383 13.64162,185.75812 16.23192,369.0604 12.76472,551.01657"
           id="path5033"
           inkscape:connector-curvature="0" />
        <path
           style="fill:#4e9a06;fill-rule:evenodd;stroke:#000000;stroke-width:3.92268872;stroke-linecap:round;stroke-linejoin:round;stroke-miterlimit:4;stroke-dasharray:none;stroke-opacity:1"
           d="m 639.04086,185.70657 c 22.20153,-191.48185 8.08013,-385.9906 -34.34519,-582.85802 34.0775,14.24423 64.66142,32.61723 127.27922,13.13199 l -32.3249,580.83771"
           id="path5035"
           inkscape:connector-curvature="0"
           sodipodi:nodetypes="cccc" />
        <path
           style="fill:none;fill-rule:evenodd;stroke:#000000;stroke-width:3.81061363;stroke-linecap:butt;stroke-linejoin:miter;stroke-miterlimit:4;stroke-dasharray:none;stroke-opacity:1"
           d="m 625.90888,-387.04992 3.03045,15.15229 3.03046,-14.14214 0,0"
           id="path5037"
           inkscape:connector-curvature="0" />
        <path
           sodipodi:nodetypes="ccccc"
           inkscape:connector-curvature="0"
           id="path5039"
           d="m 640.14159,110.31775 c -1.63038,85.61625 -10.31946,145.35076 -21.41166,196.27371 31.76146,25.55852 54.95036,12.54086 80.88866,11.89538 l 14.2743,-214.11679 c -25.4946,16.21893 -51.4687,8.52334 -73.7513,5.9477 z"
           style="fill:#ffffff;fill-opacity:1;fill-rule:evenodd;stroke:#000000;stroke-width:5.14720917;stroke-linecap:butt;stroke-linejoin:miter;stroke-miterlimit:4;stroke-dasharray:none;stroke-opacity:1" />
        <path
           inkscape:connector-curvature="0"
           id="path5041"
           d="m 635.76556,320.01275 1.17099,-18.15872 -7.75718,15.16246 0,0"
           style="fill:none;fill-rule:evenodd;stroke:#000000;stroke-width:4.48731089;stroke-linecap:butt;stroke-linejoin:miter;stroke-miterlimit:4;stroke-dasharray:none;stroke-opacity:1" />
        <path
           style="fill:none;fill-rule:evenodd;stroke:#000000;stroke-width:4.48731089;stroke-linecap:butt;stroke-linejoin:miter;stroke-miterlimit:4;stroke-dasharray:none;stroke-opacity:1"
           d="m 687.53949,325.14139 -6.9468,-16.81824 -0.2859,17.02919 0,0"
           id="path5043"
           inkscape:connector-curvature="0" />
      </g>
    </g>
  </g>
</svg>
